PricePlanID	PricePlanName	ItemSKU	ItemUOM	ItemQty	OrderMultiple	OrderMin	OrderMax	ItemPrice	SupplierID	Qty1Trigger	Qty1Price	Qty2Trigger	Qty2Price	Qty3Trigger	Qty3Price	Qty4Trigger	Qty4Price	Qty5Trigger	Qty5Price	ItemWeight	OversizePackage
5722		3-SA13TY	EA	1	1	1	0	2.16	619215437											0.6	no
5722		4-SA13TA	EA	1	1	1	0	2.16	619215437											0.6	no
5722		5-SA13TA	EA	1	1	1	0	2.16	619215437											0.6	no
5722		6-SA13TA	EA	1	1	1	0	2.16	619215437											0.6	no
5722		7-SA13TA	EA	1	1	1	0	2.16	619215437											0.6	no
5722		8-SA13TA2	EA	1	1	1	0	3.41	619215437											0.6	no
5722		9-SA13TA3	EA	1	1	1	0	3.73	619215437											0.6	no
5722		91-SA13TA4	EA	1	1	1	0	4.13	619215437											0.6	no
5722		92-SA13TA5	EA	1	1	1	0	4.53	619215437											0.6	no
5722		92-SA13KA5	EA	1	1	1	0	4.53	619215437											0.6	
5722		1-SA13WYC	EA	1	1	1	0	1.98	619215437											0.6	
5722		2-sa13wyc	EA	1	1	1	0	1.98	619215437											0.6	
5722		3-SAWYC	EA	1	1	1	0	1.98	619215437											0.6	
5722		4-SA13WAC	EA	1	1	1	0	1.98	619215437											0.6	
5722		5-SA13WAC	EA	1	1	1	0	1.98	619215437											0.6	
5722		6-SA13WAC	EA	1	1	1	0	1.98	619215437											0.6	
5722		7-SA13WAC	EA	1	1	1	0	1.98	619215437											0.6	
5722		8-SA13WA2C	EA	1	1	1	0	2.8	619215437											0.6	
5722		9-SA13WA3C	EA	1	1	1	0	2.86	619215437											0.6	
5722		91-SA13WA4C	EA	1	1	1	0	3.36	619215437											0.6	
5722		92-SA13WA5C	EA	1	1	1	0	4.58	619215437											0.6	
5722		93-SA13WA6C	EA	1	1	1	0	5.39	619215437											0.6	no
5722		1-SA13WYN	EA	1	1	1	0	1.73	619215437											0.6	
5722		2-SA13WYN	EA	1	1	1	0	1.73	619215437											0.6	
5722		3-SA13WYN	EA	1	1	1	0	1.73	619215437											0.6	
5722		4-SA13WAN	EA	1	1	1	0	1.73	619215437											0.6	
5722		5-SA13WAN	EA	1	1	1	0	1.73	619215437											0.6	
5722		6-SA13WAN	EA	1	1	1	0	1.73	619215437											0.6	
5722		7-SA13WAN	EA	1	1	1	0	1.73	619215437											0.6	
5722		8-SA13WA2N	EA	1	1	1	0	2.55	619215437											0.6	
5722		9-SA13WA3N	EA	1	1	1	0	2.61	619215437											0.6	
5722		91-SA13WA4N	EA	1	1	1	0	3.11	619215437											0.6	
5722		92-SA13WA5N	EA	1	1	1	0	4.33	619215437											0.6	
5722		93-SA13WA6N	EA	1	1	1	0	5.16	619215437											0.6	no
5722		93-SA13PA6	EA	1	1	1	0	5.96	619215437											0.6	no
5722		2- SA13WYC	EA	1	1	1	0	1.98	619215437											0.6	
5722		3- SA13WYC	EA	1	1	1	0	1.98	619215437											0.6	
5722		93-SA13TA6	EA	1	1	1	0	5.93	619215437											0.6	no
5722		93-SA13KA6	EA	1	1	1	0	5.93	619215437											0.6	no
5722		3-SA13WYC	EA	1	1	1	0	1.98	619215437											0.6	
5722		1-RFL14FWY	EA	1	1	1	0	1.8	619215437											0.6	
5722		2-RFL14FWY	EA	1	1	1	0	1.8	619215437											0.6	
5722		3-RFL14FWY	EA	1	1	1	0	1.8	619215437											0.6	
5722		4-RFL14FW	EA	1	1	1	0	1.8	619215437											0.6	
5722		5-RFL14FW	EA	1	1	1	0	1.8	619215437											0.6	
5722		6-RFL14FW	EA	1	1	1	0	1.8	619215437											0.6	
5722		7-RFL14FW	EA	1	1	1	0	1.8	619215437											0.6	
5722		8-RFL14FW2	EA	1	1	1	0	2.8	619215437											0.6	
5722		9-RFL14FW3	EA	1	1	1	0	2.95	619215437											0.6	
5722		91-RFL14FW4	EA	1	1	1	0	3.1	619215437											0.6	
5722		92-RFL14FW5	EA	1	1	1	0	3.25	619215437											0.6	
5722		93-RFL14FW6	EA	1	1	1	0	3.4	619215437											0.6	
5722		1-RFL14WY	EA	1	1	1	0	2.1	619215437											0.6	no
5722		2-RFL14WY	EA	1	1	1	0	2.1	619215437											0.6	no
5722		3-RFL14WY	EA	1	1	1	0	2.1	619215437											0.6	no
5722		4-RFL14W	EA	1	1	1	0	2.1	619215437											0.6	no
5722		5-RFL14W	EA	1	1	1	0	2.1	619215437											0.6	no
5722		6-RFL14W	EA	1	1	1	0	2.1	619215437											0.6	no
5722		7-RFL14W	EA	1	1	1	0	2.1	619215437											0.6	no
5722		8-RFL14W2	EA	1	1	1	0	3.1	619215437											0.6	no
5722		9-RFL14W3	EA	1	1	1	0	3.25	619215437											0.6	no
5722		93-RFL14W6	EA	1	1	1	0	3.7	619215437											0.6	no
5722		91-RFL14W4	EA	1	1	1	0	3.4	619215437											0.6	no
5722		92-RFL14W5	EA	1	1	1	0	3.55	619215437											0.6	no
5722		1-RFL14HPY	EA	1	1	1	0	2.25	619215437											0.6	no
5722		2-RFL14HPY	EA	1	1	1	0	2.25	619215437											0.6	no
5722		3-RFL14HPY	EA	1	1	1	0	2.25	619215437											0.6	no
5722		4-RFL14HP	EA	1	1	1	0	2.25	619215437											0.6	no
5722		5-RFL14HP	EA	1	1	1	0	2.25	619215437											0.6	no
5722		6-RFL14HP	EA	1	1	1	0	2.25	619215437											0.6	no
5722		7-RFL14HP	EA	1	1	1	0	2.25	619215437											0.6	no
5722		8-RFL14HP2	EA	1	1	1	0	3.3	619215437											0.6	no
5722		9-RFL14HP3	EA	1	1	1	0	3.45	619215437											0.6	no
5722		91-RFL14HP4	EA	1	1	1	0	3.6	619215437											0.6	no
5722		92-RFL14HP5	EA	1	1	1	0	3.75	619215437											0.6	no
5722		93-RFL14HP6	EA	1	1	1	0	3.9	619215437											0.6	no
5722		1-RFL14AY	EA	1	1	1	0	2.22	619215437											0.6	
5722		2-RFL14AY	EA	1	1	1	0	2.22	619215437											0.6	
5722		3-RFL14AY	EA	1	1	1	0	2.22	619215437											0.6	
5722		4-RFL14A	EA	1	1	1	0	2.22	619215437											0.6	
5722		5-RFL14A	EA	1	1	1	0	2.22	619215437											0.6	
5722		6-RFL14A	EA	1	1	1	0	2.22	619215437											0.6	
5722		7-RFL14A	EA	1	1	1	0	2.22	619215437											0.6	
5722		8-RFL14A2	EA	1	1	1	0	3.32	619215437											0.6	
5722		9-RFL14A3	EA	1	1	1	0	3.51	619215437											0.6	
5722		91-RFL14A4	EA	1	1	1	0	3.66	619215437											0.6	
5722		92-RFL14A5	EA	1	1	1	0	3.81	619215437											0.6	
5722		93-RFL14A6	EA	1	1	1	0	3.96	619215437											0.6	
5722		1-RFL14FGY	EA	1	1	1	0	1.85	619215437											0.6	
5722		2-RFL14FGY	EA	1	1	1	0	1.85	619215437											0.6	
5722		3-RFL14FGY	EA	1	1	1	0	1.85	619215437											0.6	
5722		4-RFL14FG	EA	1	1	1	0	1.85	619215437											0.6	
5722		5-RFL14FG	EA	1	1	1	0	1.85	619215437											0.6	
5722		6-RFL14FG	EA	1	1	1	0	1.85	619215437											0.6	
5722		7-RFL14FG	EA	1	1	1	0	1.85	619215437											0.6	
5722		8-RFL14FG2	EA	1	1	1	0	2.9	619215437											0.6	
5722		9-RFL14FG3	EA	1	1	1	0	3.05	619215437											0.6	
5722		91-RFL14FG4	EA	1	1	1	0	3.2	619215437											0.6	
5722		92-RFL14FG5	EA	1	1	1	0	3.35	619215437											0.6	
5722		93-RFL14FG6	EA	1	1	1	0	3.5	619215437											0.6	
5722		4-RFL14GY	EA	1	1	1	0	1.85	619215437											0.6	
5722		5-RFL14G	EA	1	1	1	0	2.12	619215437											0.6	
5722		6-RFL14G	EA	1	1	1	0	2.12	619215437											0.6	
5722		7-RFL14G	EA	1	1	1	0	2.12	619215437											0.6	
5722		8-RFL14G2	EA	1	1	1	0	3.27	619215437											0.6	
5722		9-RFL14G3	EA	1	1	1	0	3.45	619215437											0.6	
5722		91-RFL14G4	EA	1	1	1	0	3.66	619215437											0.6	
5722		1-RFL14FBY	EA	1	1	1	0	1.91	619215437											0.6	
5722		2-RFL14FBY	EA	1	1	1	0	1.91	619215437											0.6	
5722		3-RFL14FBY	EA	1	1	1	0	1.91	619215437											0.6	
5722		4-RFL14FB	EA	1	1	1	0	1.91	619215437											0.6	
5722		5-RFL14FB	EA	1	1	1	0	1.91	619215437											0.6	
5722		6-RFL14FB	EA	1	1	1	0	1.91	619215437											0.6	
5722		7-RFL14FB	EA	1	1	1	0	1.91	619215437											0.6	
5722		8-RFL14FB2	EA	1	1	1	0	3.06	619215437											0.6	
5722		9-RFL14FB3	EA	1	1	1	0	3.21	619215437											0.6	
5722		91-RFL14FB4	EA	1	1	1	0	3.36	619215437											0.6	
5722		92-RFL14FB5	EA	1	1	1	0	3.51	619215437											0.6	
5722		93-RFL14FB6	EA	1	1	1	0	3.66	619215437											0.6	
5722		1-RFL14BY	EA	1	1	1	0	2.22	619215437											0.6	
5722		2-RFL14BY	EA	1	1	1	0	2.22	619215437											0.6	
5722		3-RFL14BY	EA	1	1	1	0	2.22	619215437											0.6	
5722		4-RFL14B	EA	1	1	1	0	2.22	619215437											0.6	
5722		5-RFL14B	EA	1	1	1	0	2.22	619215437											0.6	
5722		6-RFL14B	EA	1	1	1	0	2.22	619215437											0.6	
5722		7-RFL14B	EA	1	1	1	0	2.22	619215437											0.6	
5722		8-RFL14B2	EA	1	1	1	0	3.32	619215437											0.6	
5722		9-RFL14B3	EA	1	1	1	0	3.51	619215437											0.6	
5722		91-RFL14B4	EA	1	1	1	0	3.66	619215437											0.6	
5722		92-RFL14B5	EA	1	1	1	0	3.81	619215437											0.6	
5722		93-RFL14B6	EA	1	1	1	0	3.96	619215437											0.6	
5722		92-RFL14G5	EA	1	1	1	0	3.78	619215437											0.6	
5722		93-RFL14G6	EA	1	1	1	0	3.7	619215437											0.6	
5722		1-RFL14FAY	EA	1	1	1	0	1.91	619215437											0.6	
5722		2-RFL14FAY	EA	1	1	1	0	1.91	619215437											0.6	
5722		3-RFL14FAY	EA	1	1	1	0	1.91	619215437											0.6	
5722		4-RFL14FA	EA	1	1	1	0	1.91	619215437											0.6	
5722		5-RFL14FA	EA	1	1	1	0	1.91	619215437											0.6	
5722		6-RFL14FA	EA	1	1	1	0	1.91	619215437											0.6	
5722		7-RFL14FA	EA	1	1	1	0	1.91	619215437											0.6	
5722		8-RFL14FA2	EA	1	1	1	0	3.06	619215437											0.6	
5722		9-RFL14FA3	EA	1	1	1	0	3.21	619215437											0.6	
5722		91-RFL14FA4	EA	1	1	1	0	3.36	619215437											0.6	
5722		92-RFL14FA5	EA	1	1	1	0	3.51	619215437											0.6	
5722		93-RFL14FA6	EA	1	1	1	0	3.66	619215437											0.6	
5722		1-SA13KY	EA	1	1	1	0	2.16	619215437											0.6	no
5722		2-SA13KY	EA	1	1	1	0	2.16	619215437											0.6	no
5722		3-SA13KY	EA	1	1	1	0	2.16	619215437											0.6	no
5722		4-SA13KA	EA	1	1	1	0	2.16	619215437											0.6	no
5722		5-SA13KA	EA	1	1	1	0	2.16	619215437											0.6	no
5722		6-SA13KA	EA	1	1	1	0	2.16	619215437											0.6	no
5722		7-SA13KA	EA	1	1	1	0	2.16	619215437											0.6	no
5722		8-SA13KA2	EA	1	1	1	0	3.41	619215437											0.6	no
5722		9-SA13KA3	EA	1	1	1	0	3.73	619215437											0.6	no
5722		91-SA13KA4	EA	1	1	1	0	4.13	619215437											0.6	no
5722		1-SA13PY	EA	1	1	1	0	2.18	619215437											0.6	no
5722		2-SA13PY	EA	1	1	1	0	2.18	619215437											0.6	no
5722		3-SA13PY	EA	1	1	1	0	2.18	619215437											0.6	no
5722		4-SA13PA	EA	1	1	1	0	2.18	619215437											0.6	no
5722		5-SA13PA	EA	1	1	1	0	2.18	619215437											0.6	no
5722		6-SA13PA	EA	1	1	1	0	2.18	619215437											0.6	no
5722		7-SA13PA	EA	1	1	1	0	2.18	619215437											0.6	no
5722		8-SA13PA2	EA	1	1	1	0	3.45	619215437											0.6	no
5722		9-SA13PA3	EA	1	1	1	0	3.75	619215437											0.6	no
5722		91-SA13PA4	EA	1	1	1	0	4.17	619215437											0.6	no
5722		92-SA13PA5	EA	1	1	1	0	4.57	619215437											0.6	no
5722		1-SA13TY	EA	1	1	1	0	2.16	619215437											0.6	no
5722		2-SA13TY	EA	1	1	1	0	2.16	619215437											0.6	no
